[
    {
        "id": 1,
        "channel_icon": "../images/sos-icon.png",
        "datetime": "23 พฤศจิกายน 2565 18:27:08 น.",
        "place": "หาดพะยูน",
        "coordinates": [
            13.8133111,
            100.5577657
        ],
        "type": "accident",
        "status": "ไม่ได้รับ",
        "url": "cctv.html"
    },
    {
        "id": 2,
        "channel_icon": "../images/sos-icon.png",
        "datetime": "23 พฤศจิกายน 2565 18:27:08 น.",
        "place": "หาดพะยูน",
        "coordinates": [
            13.8133222,
            100.5577657
        ],
        "type": "robbery",
        "status": "รับสาย",
        "url": "cctv.html"
    },
    {
        "id": 3,
        "channel_icon": "../images/sos-icon.png",
        "datetime": "23 พฤศจิกายน 2565 18:27:08 น.",
        "place": "หาดพะยูน",
        "coordinates": [
            13.8133333,
            100.5577657
        ],
        "type": "appeal",
        "status": "ไม่ได้รับ",
        "url": "cctv.html"
    },
    {
        "id": 4,
        "channel_icon": "../images/mobile-icon.png",
        "datetime": "23 พฤศจิกายน 2565 18:27:08 น.",
        "place": "หาดพะยูน",
        "coordinates": [
            13.8133444,
            100.5577657
        ],
        "type": "later",
        "status": "รับสาย",
        "url": "cctv.html"
    },
    {
        "id": 5,
        "channel_icon": "../images/sos-icon.png",
        "datetime": "23 พฤศจิกายน 2565 18:27:08 น.",
        "place": "หาดพะยูน",
        "coordinates": [
            13.8133555,
            100.5577657
        ],
        "type": "other",
        "status": "ไม่ได้รับ",
        "url": "cctv.html"
    }
]