{
    "colors": [
        "#FB9955",
        "#00D293",
        "#35C8EE",
        "#F9C834"
    ],
    "labels": [
        "Location1 ",
        "Location2 ",
        "Location3 ",
        "Location4 ",
        "Location5 ",
        "Location6 ",
        "Location7 "
    ],
    "series": [
        {
            "name": "00.00-05.59",
            "data": [
                44,
                55,
                41,
                67,
                22,
                43,
                32
            ]
        },
        {
            "name": "06.00-11.59",
            "data": [
                44,
                55,
                41,
                67,
                22,
                43,
                54
            ]
        },
        {
            "name": "12.00-17.59",
            "data": [
                44,
                55,
                41,
                67,
                22,
                43,
                42
            ]
        },
        {
            "name": "18.00-23.59",
            "data": [
                44,
                55,
                41,
                67,
                22,
                43,
                25
            ]
        }
    ]
}